Lab Week 9 - Simple Linear Regression
…
We can use the results of both to write a statement about the model:

REWRITE THIS STATEMENT OF LINEAR MODEL OUTPUTS USING TIDY AND GLANCE OUTPUTS

C. Predictions & SEs at a glance (for existing values in df)

To find the predicted values and residuals for iris petal width at each existing petal length in the data frame, we can use broom::augment(iris_lm):

lm_fitted <- broom::augment(iris_lm)
lm_fitted

## # A tibble: 150 x 8
##    Petal.Width Petal.Length .fitted  .resid .std.resid   .hat .sigma
##          <dbl>        <dbl>   <dbl>   <dbl>      <dbl>  <dbl>  <dbl>
##  1         0.2          1.4   0.219  0.0190    -0.0928 0.0186  0.207
##  2         0.2          1.4   0.219  0.0190    -0.0928 0.0186  0.207
##  3         0.2          1.3   0.177 -0.0226     0.111  0.0197  0.207
##  4         0.2          1.5   0.261  0.0606    -0.296  0.0176  0.207
##  5         0.2          1.4   0.219  0.0190    -0.0928 0.0186  0.207
##  6         0.4          1.7   0.344 -0.0563     0.275  0.0158  0.207
##  7         0.3          1.4   0.219 -0.0810     0.396  0.0186  0.207
##  8         0.2          1.5   0.261  0.0606    -0.296  0.0176  0.207
##  9         0.2          1.4   0.219  0.0190    -0.0928 0.0186  0.207
## 10         0.1          1.5   0.261  0.161     -0.785  0.0176  0.207
## #  with 140 more rows, and 1 more variable: .cooksd <dbl>
…
